-------------------------------------------------------------------------------
Test set: com.mintic.sprintboot.web.app.HuellistasColombiaApplicationTests
-------------------------------------------------------------------------------
Tests run: 1, Failures: 0, Errors: 0, Skipped: 0, Time elapsed: 7.282 s - in com.mintic.sprintboot.web.app.HuellistasColombiaApplicationTests
