C:\Users\ADMIN\Documents\workspace-spring-tool-suite-4-4.12.1.RELEASE\huellistas-colombia\src\main\java\com\mintic\sprintboot\web\app\models\dao\IPetsTypeDao.java
C:\Users\ADMIN\Documents\workspace-spring-tool-suite-4-4.12.1.RELEASE\huellistas-colombia\src\main\java\com\mintic\sprintboot\web\app\models\dao\IPetDao.java
C:\Users\ADMIN\Documents\workspace-spring-tool-suite-4-4.12.1.RELEASE\huellistas-colombia\src\main\java\com\mintic\sprintboot\web\app\models\services\PetServiceImpl.java
C:\Users\ADMIN\Documents\workspace-spring-tool-suite-4-4.12.1.RELEASE\huellistas-colombia\src\main\java\com\mintic\sprintboot\web\app\models\dao\IPetsBreedDao.java
C:\Users\ADMIN\Documents\workspace-spring-tool-suite-4-4.12.1.RELEASE\huellistas-colombia\src\main\java\com\mintic\sprintboot\web\app\auth\handler\LoginCustomSuccesHandler.java
C:\Users\ADMIN\Documents\workspace-spring-tool-suite-4-4.12.1.RELEASE\huellistas-colombia\src\main\java\com\mintic\sprintboot\web\app\models\services\IPetService.java
C:\Users\ADMIN\Documents\workspace-spring-tool-suite-4-4.12.1.RELEASE\huellistas-colombia\src\main\java\com\mintic\sprintboot\web\app\models\services\JpaUserDetailsService.java
C:\Users\ADMIN\Documents\workspace-spring-tool-suite-4-4.12.1.RELEASE\huellistas-colombia\src\main\java\com\mintic\sprintboot\web\app\models\entity\PetsType.java
C:\Users\ADMIN\Documents\workspace-spring-tool-suite-4-4.12.1.RELEASE\huellistas-colombia\src\main\java\com\mintic\sprintboot\web\app\models\entity\Post.java
C:\Users\ADMIN\Documents\workspace-spring-tool-suite-4-4.12.1.RELEASE\huellistas-colombia\src\main\java\com\mintic\sprintboot\web\app\models\services\PetsSizeServiceImpl.java
C:\Users\ADMIN\Documents\workspace-spring-tool-suite-4-4.12.1.RELEASE\huellistas-colombia\src\main\java\com\mintic\sprintboot\web\app\constrollers\PostController.java
C:\Users\ADMIN\Documents\workspace-spring-tool-suite-4-4.12.1.RELEASE\huellistas-colombia\src\main\java\com\mintic\sprintboot\web\app\constrollers\UserController.java
C:\Users\ADMIN\Documents\workspace-spring-tool-suite-4-4.12.1.RELEASE\huellistas-colombia\src\main\java\com\mintic\sprintboot\web\app\constrollers\GlobalErrorController.java
C:\Users\ADMIN\Documents\workspace-spring-tool-suite-4-4.12.1.RELEASE\huellistas-colombia\src\main\java\com\mintic\sprintboot\web\app\models\dao\IPetsStatusDao.java
C:\Users\ADMIN\Documents\workspace-spring-tool-suite-4-4.12.1.RELEASE\huellistas-colombia\src\main\java\com\mintic\sprintboot\web\app\models\entity\PetsBreed.java
C:\Users\ADMIN\Documents\workspace-spring-tool-suite-4-4.12.1.RELEASE\huellistas-colombia\src\main\java\com\mintic\sprintboot\web\app\models\entity\PetsSize.java
C:\Users\ADMIN\Documents\workspace-spring-tool-suite-4-4.12.1.RELEASE\huellistas-colombia\src\main\java\com\mintic\sprintboot\web\app\models\services\IPetsStatusService.java
C:\Users\ADMIN\Documents\workspace-spring-tool-suite-4-4.12.1.RELEASE\huellistas-colombia\src\main\java\com\mintic\sprintboot\web\app\HuellistasColombiaApplication.java
C:\Users\ADMIN\Documents\workspace-spring-tool-suite-4-4.12.1.RELEASE\huellistas-colombia\src\main\java\com\mintic\sprintboot\web\app\models\services\IPetsSizeService.java
C:\Users\ADMIN\Documents\workspace-spring-tool-suite-4-4.12.1.RELEASE\huellistas-colombia\src\main\java\com\mintic\sprintboot\web\app\models\entity\PetsStatus.java
C:\Users\ADMIN\Documents\workspace-spring-tool-suite-4-4.12.1.RELEASE\huellistas-colombia\src\main\java\com\mintic\sprintboot\web\app\constrollers\LoginController.java
C:\Users\ADMIN\Documents\workspace-spring-tool-suite-4-4.12.1.RELEASE\huellistas-colombia\src\main\java\com\mintic\sprintboot\web\app\constrollers\IndexController.java
C:\Users\ADMIN\Documents\workspace-spring-tool-suite-4-4.12.1.RELEASE\huellistas-colombia\src\main\java\com\mintic\sprintboot\web\app\models\dao\IRoleDao.java
C:\Users\ADMIN\Documents\workspace-spring-tool-suite-4-4.12.1.RELEASE\huellistas-colombia\src\main\java\com\mintic\sprintboot\web\app\models\services\IPetsBreedService.java
C:\Users\ADMIN\Documents\workspace-spring-tool-suite-4-4.12.1.RELEASE\huellistas-colombia\src\main\java\com\mintic\sprintboot\web\app\models\services\PetsTypeServiceImpl.java
C:\Users\ADMIN\Documents\workspace-spring-tool-suite-4-4.12.1.RELEASE\huellistas-colombia\src\main\java\com\mintic\sprintboot\web\app\MvcConfig.java
C:\Users\ADMIN\Documents\workspace-spring-tool-suite-4-4.12.1.RELEASE\huellistas-colombia\src\main\java\com\mintic\sprintboot\web\app\models\dao\IPostDao.java
C:\Users\ADMIN\Documents\workspace-spring-tool-suite-4-4.12.1.RELEASE\huellistas-colombia\src\main\java\com\mintic\sprintboot\web\app\models\services\UserServiceImpl.java
C:\Users\ADMIN\Documents\workspace-spring-tool-suite-4-4.12.1.RELEASE\huellistas-colombia\src\main\java\com\mintic\sprintboot\web\app\models\services\IPetsTypeService.java
C:\Users\ADMIN\Documents\workspace-spring-tool-suite-4-4.12.1.RELEASE\huellistas-colombia\src\main\java\com\mintic\sprintboot\web\app\models\services\IUserService.java
C:\Users\ADMIN\Documents\workspace-spring-tool-suite-4-4.12.1.RELEASE\huellistas-colombia\src\main\java\com\mintic\sprintboot\web\app\models\services\PetsBreedServiceImpl.java
C:\Users\ADMIN\Documents\workspace-spring-tool-suite-4-4.12.1.RELEASE\huellistas-colombia\src\main\java\com\mintic\sprintboot\web\app\models\entity\Pet.java
C:\Users\ADMIN\Documents\workspace-spring-tool-suite-4-4.12.1.RELEASE\huellistas-colombia\src\main\java\com\mintic\sprintboot\web\app\models\services\PetsStatusServiceImpl.java
C:\Users\ADMIN\Documents\workspace-spring-tool-suite-4-4.12.1.RELEASE\huellistas-colombia\src\main\java\com\mintic\sprintboot\web\app\models\dao\IPetsSizeDao.java
C:\Users\ADMIN\Documents\workspace-spring-tool-suite-4-4.12.1.RELEASE\huellistas-colombia\src\main\java\com\mintic\sprintboot\web\app\models\services\IPostService.java
C:\Users\ADMIN\Documents\workspace-spring-tool-suite-4-4.12.1.RELEASE\huellistas-colombia\src\main\java\com\mintic\sprintboot\web\app\models\dao\IUserDao.java
C:\Users\ADMIN\Documents\workspace-spring-tool-suite-4-4.12.1.RELEASE\huellistas-colombia\src\main\java\com\mintic\sprintboot\web\app\models\entity\Role.java
C:\Users\ADMIN\Documents\workspace-spring-tool-suite-4-4.12.1.RELEASE\huellistas-colombia\src\main\java\com\mintic\sprintboot\web\app\models\services\PostServiceImpl.java
C:\Users\ADMIN\Documents\workspace-spring-tool-suite-4-4.12.1.RELEASE\huellistas-colombia\src\main\java\com\mintic\sprintboot\web\app\HuellistasColombiaSecurityConfig.java
C:\Users\ADMIN\Documents\workspace-spring-tool-suite-4-4.12.1.RELEASE\huellistas-colombia\src\main\java\com\mintic\sprintboot\web\app\models\entity\User.java
